{"failedCount":0,"prefixedPath":"classpath:examples\/products\/Get-API-APPS.feature","packageQualifiedName":"examples.products.Get-API-APPS","loopIndex":-1,"relativePath":"examples\/products\/Get-API-APPS.feature","scenarioResults":[{"sectionIndex":0,"stepResults":[{"result":{"nanos":3143600,"startTime":1718015908285,"endTime":1718015908288,"millis":3.1436,"status":"passed"},"step":{"background":true,"line":4,"prefix":"*","index":0,"text":"url 'https:\/\/reqres.in\/api'"},"stepLog":"11:38:28.164 karate.env system property was: null \n"},{"result":{"nanos":1784100,"startTime":1718015908297,"endTime":1718015908299,"millis":1.7841,"status":"passed"},"step":{"line":7,"prefix":"Given","index":0,"text":"path 'users'"}},{"result":{"nanos":8049000,"startTime":1718015908299,"endTime":1718015908307,"millis":8.049,"status":"passed"},"step":{"line":8,"prefix":"And","index":1,"text":"param page = 2"}},{"result":{"nanos":1763990700,"startTime":1718015908308,"endTime":1718015910072,"millis":1763.9907,"status":"passed"},"step":{"line":9,"prefix":"When","index":2,"text":"method get"},"stepLog":"11:38:29.139 request:\n1 > GET https:\/\/reqres.in\/api\/users?page=2\n1 > Host: reqres.in\n1 > Connection: Keep-Alive\n1 > User-Agent: Apache-HttpClient\/4.5.14 (Java\/17.0.11)\n1 > Accept-Encoding: gzip,deflate\n\n\n11:38:29.961 response time in milliseconds: 809\n1 < 200\n1 < Date: Mon, 10 Jun 2024 10:38:24 GMT\n1 < Content-Type: application\/json; charset=utf-8\n1 < Transfer-Encoding: chunked\n1 < Connection: keep-alive\n1 < Report-To: {\"group\":\"heroku-nel\",\"max_age\":3600,\"endpoints\":[{\"url\":\"https:\/\/nel.heroku.com\/reports?ts=1718011356&sid=c4c9725f-1ab0-44d8-820f-430df2718e11&s=wmmKciv4Bk9aKQfE3EvaGDkwFGFiO6k%2FaIOaLXKLIOA%3D\"}]}\n1 < Reporting-Endpoints: heroku-nel=https:\/\/nel.heroku.com\/reports?ts=1718011356&sid=c4c9725f-1ab0-44d8-820f-430df2718e11&s=wmmKciv4Bk9aKQfE3EvaGDkwFGFiO6k%2FaIOaLXKLIOA%3D\n1 < Nel: {\"report_to\":\"heroku-nel\",\"max_age\":3600,\"success_fraction\":0.005,\"failure_fraction\":0.05,\"response_headers\":[\"Via\"]}\n1 < X-Powered-By: Express\n1 < Access-Control-Allow-Origin: *\n1 < Etag: W\/\"406-ut0vzoCuidvyMf8arZpMpJ6ZRDw\"\n1 < Via: 1.1 vegur\n1 < Cache-Control: max-age=14400\n1 < CF-Cache-Status: HIT\n1 < Age: 4548\n1 < Vary: Accept-Encoding\n1 < Server: cloudflare\n1 < CF-RAY: 8918bb4bdaf141b0-MRS\n{\"page\":2,\"per_page\":6,\"total\":12,\"total_pages\":2,\"data\":[{\"id\":7,\"email\":\"michael.lawson@reqres.in\",\"first_name\":\"Michael\",\"last_name\":\"Lawson\",\"avatar\":\"https:\/\/reqres.in\/img\/faces\/7-image.jpg\"},{\"id\":8,\"email\":\"lindsay.ferguson@reqres.in\",\"first_name\":\"Lindsay\",\"last_name\":\"Ferguson\",\"avatar\":\"https:\/\/reqres.in\/img\/faces\/8-image.jpg\"},{\"id\":9,\"email\":\"tobias.funke@reqres.in\",\"first_name\":\"Tobias\",\"last_name\":\"Funke\",\"avatar\":\"https:\/\/reqres.in\/img\/faces\/9-image.jpg\"},{\"id\":10,\"email\":\"byron.fields@reqres.in\",\"first_name\":\"Byron\",\"last_name\":\"Fields\",\"avatar\":\"https:\/\/reqres.in\/img\/faces\/10-image.jpg\"},{\"id\":11,\"email\":\"george.edwards@reqres.in\",\"first_name\":\"George\",\"last_name\":\"Edwards\",\"avatar\":\"https:\/\/reqres.in\/img\/faces\/11-image.jpg\"},{\"id\":12,\"email\":\"rachel.howell@reqres.in\",\"first_name\":\"Rachel\",\"last_name\":\"Howell\",\"avatar\":\"https:\/\/reqres.in\/img\/faces\/12-image.jpg\"}],\"support\":{\"url\":\"https:\/\/reqres.in\/#support-heading\",\"text\":\"To keep ReqRes free, contributions towards server costs are appreciated!\"}}\n\n"},{"result":{"nanos":79600,"startTime":1718015910072,"endTime":1718015910072,"millis":0.0796,"status":"passed"},"step":{"line":10,"prefix":"Then","index":3,"text":"status 200"}},{"result":{"nanos":89622700,"startTime":1718015910072,"endTime":1718015910162,"millis":89.6227,"status":"passed"},"step":{"line":11,"prefix":"And","index":4,"text":"match response.data[0].id == 7"}}],"executorName":"main","line":6,"name":"Successful API Request","description":"","durationMillis":1866.6697,"startTime":1718015907725,"failed":false,"refId":"[1:6]","endTime":1718015910162,"exampleIndex":-1}],"callDepth":0,"name":"Testing Users API","description":"","resultDate":"2024-06-10 11:38:30 AM","durationMillis":1866.6697,"passedCount":1}